<?xml version="1.0" encoding="UTF-8"?>
<!-- Do not edit this file with editors other than draw.io -->
<!DOCTYPE svg PUBLIC "-//W3C//DTD SVG 1.1//EN" "http://www.w3.org/Graphics/SVG/1.1/DTD/svg11.dtd">
<svg xmlns="http://www.w3.org/2000/svg" xmlns:xlink="http://www.w3.org/1999/xlink" version="1.1" width="637px" height="291px" viewBox="-0.5 -0.5 637 291" content="&lt;mxfile host=&quot;app.diagrams.net&quot; modified=&quot;2023-08-03T21:26:16.684Z&quot; agent=&quot;Mozilla/5.0 (X11; Linux x86_64) AppleWebKit/537.36 (KHTML, like Gecko) Chrome/115.0.0.0 Safari/537.36&quot; etag=&quot;JgaJ5KepyQXmVwx83axp&quot; version=&quot;21.6.6&quot; type=&quot;device&quot;&gt;&#10;  &lt;diagram name=&quot;Page-1&quot; id=&quot;dGBAUcZEUrfi-bXGVE_u&quot;&gt;&#10;    &lt;mxGraphModel dx=&quot;3334&quot; dy=&quot;1511&quot; grid=&quot;0&quot; gridSize=&quot;10&quot; guides=&quot;1&quot; tooltips=&quot;1&quot; connect=&quot;1&quot; arrows=&quot;1&quot; fold=&quot;1&quot; page=&quot;0&quot; pageScale=&quot;1&quot; pageWidth=&quot;850&quot; pageHeight=&quot;1100&quot; math=&quot;0&quot; shadow=&quot;0&quot;&gt;&#10;      &lt;root&gt;&#10;        &lt;mxCell id=&quot;0&quot; /&gt;&#10;        &lt;mxCell id=&quot;1&quot; parent=&quot;0&quot; /&gt;&#10;        &lt;mxCell id=&quot;Qn-NqMkRvEHAuJ-IB2Mp-12&quot; style=&quot;edgeStyle=none;curved=1;rounded=0;orthogonalLoop=1;jettySize=auto;html=1;exitX=1;exitY=0.5;exitDx=0;exitDy=0;fontSize=12;startSize=8;endSize=8;fillColor=#f8cecc;strokeColor=#b85450;strokeWidth=2;gradientColor=#ea6b66;&quot; parent=&quot;1&quot; source=&quot;Qn-NqMkRvEHAuJ-IB2Mp-1&quot; target=&quot;Qn-NqMkRvEHAuJ-IB2Mp-2&quot; edge=&quot;1&quot;&gt;&#10;          &lt;mxGeometry relative=&quot;1&quot; as=&quot;geometry&quot; /&gt;&#10;        &lt;/mxCell&gt;&#10;        &lt;mxCell id=&quot;Qn-NqMkRvEHAuJ-IB2Mp-1&quot; value=&quot;Developers&quot; style=&quot;rounded=1;whiteSpace=wrap;html=1;fontSize=16;fillColor=#ffe6cc;strokeColor=#d79b00;&quot; parent=&quot;1&quot; vertex=&quot;1&quot;&gt;&#10;          &lt;mxGeometry x=&quot;-30&quot; y=&quot;89&quot; width=&quot;120&quot; height=&quot;60&quot; as=&quot;geometry&quot; /&gt;&#10;        &lt;/mxCell&gt;&#10;        &lt;mxCell id=&quot;Qn-NqMkRvEHAuJ-IB2Mp-13&quot; style=&quot;edgeStyle=none;curved=1;rounded=0;orthogonalLoop=1;jettySize=auto;html=1;entryX=0;entryY=0.5;entryDx=0;entryDy=0;fontSize=12;startSize=8;endSize=8;fillColor=#f8cecc;strokeColor=#b85450;strokeWidth=2;gradientColor=#ea6b66;&quot; parent=&quot;1&quot; target=&quot;Qn-NqMkRvEHAuJ-IB2Mp-4&quot; edge=&quot;1&quot;&gt;&#10;          &lt;mxGeometry relative=&quot;1&quot; as=&quot;geometry&quot;&gt;&#10;            &lt;mxPoint x=&quot;262&quot; y=&quot;119&quot; as=&quot;sourcePoint&quot; /&gt;&#10;          &lt;/mxGeometry&gt;&#10;        &lt;/mxCell&gt;&#10;        &lt;mxCell id=&quot;Qn-NqMkRvEHAuJ-IB2Mp-2&quot; value=&quot;Request&amp;lt;br&amp;gt;Certificate&quot; style=&quot;ellipse;whiteSpace=wrap;html=1;fontSize=16;fillColor=#e1d5e7;strokeColor=#9673a6;&quot; parent=&quot;1&quot; vertex=&quot;1&quot;&gt;&#10;          &lt;mxGeometry x=&quot;142&quot; y=&quot;79&quot; width=&quot;120&quot; height=&quot;80&quot; as=&quot;geometry&quot; /&gt;&#10;        &lt;/mxCell&gt;&#10;        &lt;mxCell id=&quot;Qn-NqMkRvEHAuJ-IB2Mp-3&quot; value=&quot;Authenticate With OpenID Connect&quot; style=&quot;ellipse;whiteSpace=wrap;html=1;fontSize=16;fillColor=#e1d5e7;strokeColor=#9673a6;&quot; parent=&quot;1&quot; vertex=&quot;1&quot;&gt;&#10;          &lt;mxGeometry x=&quot;142&quot; y=&quot;-29&quot; width=&quot;120&quot; height=&quot;80&quot; as=&quot;geometry&quot; /&gt;&#10;        &lt;/mxCell&gt;&#10;        &lt;mxCell id=&quot;Qn-NqMkRvEHAuJ-IB2Mp-23&quot; style=&quot;edgeStyle=none;rounded=1;orthogonalLoop=1;jettySize=auto;html=1;exitX=0.5;exitY=1;exitDx=0;exitDy=0;entryX=0;entryY=0.5;entryDx=0;entryDy=0;fontSize=12;startSize=8;endSize=8;strokeWidth=2;fillColor=#ffcd28;gradientColor=#ffa500;strokeColor=#d79b00;&quot; parent=&quot;1&quot; source=&quot;Qn-NqMkRvEHAuJ-IB2Mp-4&quot; target=&quot;Qn-NqMkRvEHAuJ-IB2Mp-8&quot; edge=&quot;1&quot;&gt;&#10;          &lt;mxGeometry relative=&quot;1&quot; as=&quot;geometry&quot;&gt;&#10;            &lt;Array as=&quot;points&quot;&gt;&#10;              &lt;mxPoint x=&quot;374&quot; y=&quot;221&quot; /&gt;&#10;            &lt;/Array&gt;&#10;          &lt;/mxGeometry&gt;&#10;        &lt;/mxCell&gt;&#10;        &lt;mxCell id=&quot;Qn-NqMkRvEHAuJ-IB2Mp-24&quot; style=&quot;edgeStyle=none;rounded=1;orthogonalLoop=1;jettySize=auto;html=1;exitX=0.25;exitY=1;exitDx=0;exitDy=0;entryX=1;entryY=0.5;entryDx=0;entryDy=0;fontSize=12;startSize=8;endSize=8;fillColor=#f8cecc;strokeColor=#b85450;strokeWidth=2;gradientColor=#ea6b66;&quot; parent=&quot;1&quot; source=&quot;Qn-NqMkRvEHAuJ-IB2Mp-4&quot; target=&quot;Qn-NqMkRvEHAuJ-IB2Mp-5&quot; edge=&quot;1&quot;&gt;&#10;          &lt;mxGeometry relative=&quot;1&quot; as=&quot;geometry&quot;&gt;&#10;            &lt;Array as=&quot;points&quot;&gt;&#10;              &lt;mxPoint x=&quot;344&quot; y=&quot;221&quot; /&gt;&#10;            &lt;/Array&gt;&#10;          &lt;/mxGeometry&gt;&#10;        &lt;/mxCell&gt;&#10;        &lt;mxCell id=&quot;Qn-NqMkRvEHAuJ-IB2Mp-4&quot; value=&quot;Fulcio Signing CA&quot; style=&quot;rounded=1;whiteSpace=wrap;html=1;fontSize=16;fillColor=#b1ddf0;strokeColor=#10739e;&quot; parent=&quot;1&quot; vertex=&quot;1&quot;&gt;&#10;          &lt;mxGeometry x=&quot;314&quot; y=&quot;89&quot; width=&quot;120&quot; height=&quot;60&quot; as=&quot;geometry&quot; /&gt;&#10;        &lt;/mxCell&gt;&#10;        &lt;mxCell id=&quot;Qn-NqMkRvEHAuJ-IB2Mp-41&quot; style=&quot;edgeStyle=none;rounded=1;orthogonalLoop=1;jettySize=auto;html=1;exitX=0;exitY=0.5;exitDx=0;exitDy=0;fontSize=12;startSize=8;endSize=8;entryX=0.5;entryY=1;entryDx=0;entryDy=0;fillColor=#f8cecc;strokeColor=#b85450;strokeWidth=2;gradientColor=#ea6b66;&quot; parent=&quot;1&quot; source=&quot;Qn-NqMkRvEHAuJ-IB2Mp-5&quot; target=&quot;Qn-NqMkRvEHAuJ-IB2Mp-1&quot; edge=&quot;1&quot;&gt;&#10;          &lt;mxGeometry relative=&quot;1&quot; as=&quot;geometry&quot;&gt;&#10;            &lt;Array as=&quot;points&quot;&gt;&#10;              &lt;mxPoint x=&quot;30&quot; y=&quot;221&quot; /&gt;&#10;            &lt;/Array&gt;&#10;          &lt;/mxGeometry&gt;&#10;        &lt;/mxCell&gt;&#10;        &lt;mxCell id=&quot;Qn-NqMkRvEHAuJ-IB2Mp-5&quot; value=&quot;Provide Signing Certificate&quot; style=&quot;ellipse;whiteSpace=wrap;html=1;fontSize=16;fillColor=#e1d5e7;strokeColor=#9673a6;&quot; parent=&quot;1&quot; vertex=&quot;1&quot;&gt;&#10;          &lt;mxGeometry x=&quot;144&quot; y=&quot;181&quot; width=&quot;120&quot; height=&quot;80&quot; as=&quot;geometry&quot; /&gt;&#10;        &lt;/mxCell&gt;&#10;        &lt;mxCell id=&quot;Qn-NqMkRvEHAuJ-IB2Mp-7&quot; value=&quot;Fulcio Transparency Log&quot; style=&quot;rounded=1;whiteSpace=wrap;html=1;fontSize=16;fillColor=#b1ddf0;strokeColor=#10739e;&quot; parent=&quot;1&quot; vertex=&quot;1&quot;&gt;&#10;          &lt;mxGeometry x=&quot;486&quot; y=&quot;89&quot; width=&quot;120&quot; height=&quot;60&quot; as=&quot;geometry&quot; /&gt;&#10;        &lt;/mxCell&gt;&#10;        &lt;mxCell id=&quot;Qn-NqMkRvEHAuJ-IB2Mp-25&quot; style=&quot;edgeStyle=none;rounded=1;orthogonalLoop=1;jettySize=auto;html=1;exitX=1;exitY=0.5;exitDx=0;exitDy=0;entryX=0.5;entryY=1;entryDx=0;entryDy=0;fontSize=12;startSize=8;endSize=8;strokeWidth=2;fillColor=#ffcd28;gradientColor=#ffa500;strokeColor=#d79b00;&quot; parent=&quot;1&quot; source=&quot;Qn-NqMkRvEHAuJ-IB2Mp-8&quot; target=&quot;Qn-NqMkRvEHAuJ-IB2Mp-7&quot; edge=&quot;1&quot;&gt;&#10;          &lt;mxGeometry relative=&quot;1&quot; as=&quot;geometry&quot;&gt;&#10;            &lt;Array as=&quot;points&quot;&gt;&#10;              &lt;mxPoint x=&quot;546&quot; y=&quot;221&quot; /&gt;&#10;            &lt;/Array&gt;&#10;          &lt;/mxGeometry&gt;&#10;        &lt;/mxCell&gt;&#10;        &lt;mxCell id=&quot;Qn-NqMkRvEHAuJ-IB2Mp-8&quot; value=&quot;Publish Signing Certificate&quot; style=&quot;ellipse;whiteSpace=wrap;html=1;fontSize=16;fillColor=#e1d5e7;strokeColor=#9673a6;&quot; parent=&quot;1&quot; vertex=&quot;1&quot;&gt;&#10;          &lt;mxGeometry x=&quot;404&quot; y=&quot;181&quot; width=&quot;120&quot; height=&quot;80&quot; as=&quot;geometry&quot; /&gt;&#10;        &lt;/mxCell&gt;&#10;        &lt;mxCell id=&quot;Qn-NqMkRvEHAuJ-IB2Mp-16&quot; value=&quot;&quot; style=&quot;endArrow=classic;startArrow=classic;html=1;rounded=1;fontSize=12;startSize=8;endSize=8;entryX=0.75;entryY=0;entryDx=0;entryDy=0;fillColor=#f8cecc;strokeColor=#b85450;strokeWidth=2;gradientColor=#ea6b66;&quot; parent=&quot;1&quot; source=&quot;Qn-NqMkRvEHAuJ-IB2Mp-3&quot; target=&quot;Qn-NqMkRvEHAuJ-IB2Mp-1&quot; edge=&quot;1&quot;&gt;&#10;          &lt;mxGeometry width=&quot;50&quot; height=&quot;50&quot; relative=&quot;1&quot; as=&quot;geometry&quot;&gt;&#10;            &lt;mxPoint x=&quot;202&quot; y=&quot;107&quot; as=&quot;sourcePoint&quot; /&gt;&#10;            &lt;mxPoint x=&quot;204&quot; y=&quot;84&quot; as=&quot;targetPoint&quot; /&gt;&#10;            &lt;Array as=&quot;points&quot;&gt;&#10;              &lt;mxPoint x=&quot;60&quot; y=&quot;11&quot; /&gt;&#10;            &lt;/Array&gt;&#10;          &lt;/mxGeometry&gt;&#10;        &lt;/mxCell&gt;&#10;      &lt;/root&gt;&#10;    &lt;/mxGraphModel&gt;&#10;  &lt;/diagram&gt;&#10;&lt;/mxfile&gt;&#10;"><defs/><g><path d="M 120 148 Q 120 148 162.26 148" fill="none" stroke="#b85450" stroke-width="2" stroke-miterlimit="10" pointer-events="stroke"/><path d="M 169.76 148 L 159.76 153 L 162.26 148 L 159.76 143 Z" fill="#b85450" stroke="#b85450" stroke-width="2" stroke-miterlimit="10" pointer-events="all"/><rect x="0" y="118" width="120" height="60" rx="9" ry="9" fill="#ffe6cc" stroke="#d79b00" pointer-events="all"/><g transform="translate(-0.5 -0.5)"><switch><foreignObject pointer-events="none" width="100%" height="100%" requiredFeatures="http://www.w3.org/TR/SVG11/feature#Extensibility" style="overflow: visible; text-align: left;"><div xmlns="http://www.w3.org/1999/xhtml" style="display: flex; align-items: unsafe center; justify-content: unsafe center; width: 118px; height: 1px; padding-top: 148px; margin-left: 1px;"><div data-drawio-colors="color: rgb(0, 0, 0); " style="box-sizing: border-box; font-size: 0px; text-align: center;"><div style="display: inline-block; font-size: 16px; font-family: Helvetica; color: rgb(0, 0, 0); line-height: 1.2; pointer-events: all; white-space: normal; overflow-wrap: normal;">Developers</div></div></div></foreignObject><text x="60" y="153" fill="rgb(0, 0, 0)" font-family="Helvetica" font-size="16px" text-anchor="middle">Developers</text></switch></g><path d="M 292 148 Q 292 148 334.26 148" fill="none" stroke="#b85450" stroke-width="2" stroke-miterlimit="10" pointer-events="stroke"/><path d="M 341.76 148 L 331.76 153 L 334.26 148 L 331.76 143 Z" fill="#b85450" stroke="#b85450" stroke-width="2" stroke-miterlimit="10" pointer-events="all"/><ellipse cx="232" cy="148" rx="60" ry="40" fill="#e1d5e7" stroke="#9673a6" pointer-events="all"/><g transform="translate(-0.5 -0.5)"><switch><foreignObject pointer-events="none" width="100%" height="100%" requiredFeatures="http://www.w3.org/TR/SVG11/feature#Extensibility" style="overflow: visible; text-align: left;"><div xmlns="http://www.w3.org/1999/xhtml" style="display: flex; align-items: unsafe center; justify-content: unsafe center; width: 118px; height: 1px; padding-top: 148px; margin-left: 173px;"><div data-drawio-colors="color: rgb(0, 0, 0); " style="box-sizing: border-box; font-size: 0px; text-align: center;"><div style="display: inline-block; font-size: 16px; font-family: Helvetica; color: rgb(0, 0, 0); line-height: 1.2; pointer-events: all; white-space: normal; overflow-wrap: normal;">Request<br />Certificate</div></div></div></foreignObject><text x="232" y="153" fill="rgb(0, 0, 0)" font-family="Helvetica" font-size="16px" text-anchor="middle">Request...</text></switch></g><ellipse cx="232" cy="40" rx="60" ry="40" fill="#e1d5e7" stroke="#9673a6" pointer-events="all"/><g transform="translate(-0.5 -0.5)"><switch><foreignObject pointer-events="none" width="100%" height="100%" requiredFeatures="http://www.w3.org/TR/SVG11/feature#Extensibility" style="overflow: visible; text-align: left;"><div xmlns="http://www.w3.org/1999/xhtml" style="display: flex; align-items: unsafe center; justify-content: unsafe center; width: 118px; height: 1px; padding-top: 40px; margin-left: 173px;"><div data-drawio-colors="color: rgb(0, 0, 0); " style="box-sizing: border-box; font-size: 0px; text-align: center;"><div style="display: inline-block; font-size: 16px; font-family: Helvetica; color: rgb(0, 0, 0); line-height: 1.2; pointer-events: all; white-space: normal; overflow-wrap: normal;">Authenticate With OpenID Connect</div></div></div></foreignObject><text x="232" y="45" fill="rgb(0, 0, 0)" font-family="Helvetica" font-size="16px" text-anchor="middle">Authenticate Wi...</text></switch></g><path d="M 404 178 L 404 240 Q 404 250 414 250 L 424.26 250" fill="none" stroke="#d79b00" stroke-width="2" stroke-miterlimit="10" pointer-events="stroke"/><path d="M 431.76 250 L 421.76 255 L 424.26 250 L 421.76 245 Z" fill="#d79b00" stroke="#d79b00" stroke-width="2" stroke-miterlimit="10" pointer-events="all"/><path d="M 374 178 L 374 240 Q 374 250 364 250 L 303.74 250" fill="none" stroke="#b85450" stroke-width="2" stroke-miterlimit="10" pointer-events="stroke"/><path d="M 296.24 250 L 306.24 245 L 303.74 250 L 306.24 255 Z" fill="#b85450" stroke="#b85450" stroke-width="2" stroke-miterlimit="10" pointer-events="all"/><rect x="344" y="118" width="120" height="60" rx="9" ry="9" fill="#b1ddf0" stroke="#10739e" pointer-events="all"/><g transform="translate(-0.5 -0.5)"><switch><foreignObject pointer-events="none" width="100%" height="100%" requiredFeatures="http://www.w3.org/TR/SVG11/feature#Extensibility" style="overflow: visible; text-align: left;"><div xmlns="http://www.w3.org/1999/xhtml" style="display: flex; align-items: unsafe center; justify-content: unsafe center; width: 118px; height: 1px; padding-top: 148px; margin-left: 345px;"><div data-drawio-colors="color: rgb(0, 0, 0); " style="box-sizing: border-box; font-size: 0px; text-align: center;"><div style="display: inline-block; font-size: 16px; font-family: Helvetica; color: rgb(0, 0, 0); line-height: 1.2; pointer-events: all; white-space: normal; overflow-wrap: normal;">Fulcio Signing CA</div></div></div></foreignObject><text x="404" y="153" fill="rgb(0, 0, 0)" font-family="Helvetica" font-size="16px" text-anchor="middle">Fulcio Signing...</text></switch></g><path d="M 174 250 L 70 250 Q 60 250 60 240 L 60 187.74" fill="none" stroke="#b85450" stroke-width="2" stroke-miterlimit="10" pointer-events="stroke"/><path d="M 60 180.24 L 65 190.24 L 60 187.74 L 55 190.24 Z" fill="#b85450" stroke="#b85450" stroke-width="2" stroke-miterlimit="10" pointer-events="all"/><ellipse cx="234" cy="250" rx="60" ry="40" fill="#e1d5e7" stroke="#9673a6" pointer-events="all"/><g transform="translate(-0.5 -0.5)"><switch><foreignObject pointer-events="none" width="100%" height="100%" requiredFeatures="http://www.w3.org/TR/SVG11/feature#Extensibility" style="overflow: visible; text-align: left;"><div xmlns="http://www.w3.org/1999/xhtml" style="display: flex; align-items: unsafe center; justify-content: unsafe center; width: 118px; height: 1px; padding-top: 250px; margin-left: 175px;"><div data-drawio-colors="color: rgb(0, 0, 0); " style="box-sizing: border-box; font-size: 0px; text-align: center;"><div style="display: inline-block; font-size: 16px; font-family: Helvetica; color: rgb(0, 0, 0); line-height: 1.2; pointer-events: all; white-space: normal; overflow-wrap: normal;">Provide Signing Certificate</div></div></div></foreignObject><text x="234" y="255" fill="rgb(0, 0, 0)" font-family="Helvetica" font-size="16px" text-anchor="middle">Provide Signing...</text></switch></g><rect x="516" y="118" width="120" height="60" rx="9" ry="9" fill="#b1ddf0" stroke="#10739e" pointer-events="all"/><g transform="translate(-0.5 -0.5)"><switch><foreignObject pointer-events="none" width="100%" height="100%" requiredFeatures="http://www.w3.org/TR/SVG11/feature#Extensibility" style="overflow: visible; text-align: left;"><div xmlns="http://www.w3.org/1999/xhtml" style="display: flex; align-items: unsafe center; justify-content: unsafe center; width: 118px; height: 1px; padding-top: 148px; margin-left: 517px;"><div data-drawio-colors="color: rgb(0, 0, 0); " style="box-sizing: border-box; font-size: 0px; text-align: center;"><div style="display: inline-block; font-size: 16px; font-family: Helvetica; color: rgb(0, 0, 0); line-height: 1.2; pointer-events: all; white-space: normal; overflow-wrap: normal;">Fulcio Transparency Log</div></div></div></foreignObject><text x="576" y="153" fill="rgb(0, 0, 0)" font-family="Helvetica" font-size="16px" text-anchor="middle">Fulcio Transpar...</text></switch></g><path d="M 554 250 L 566 250 Q 576 250 576 240 L 576 187.74" fill="none" stroke="#d79b00" stroke-width="2" stroke-miterlimit="10" pointer-events="stroke"/><path d="M 576 180.24 L 581 190.24 L 576 187.74 L 571 190.24 Z" fill="#d79b00" stroke="#d79b00" stroke-width="2" stroke-miterlimit="10" pointer-events="all"/><ellipse cx="494" cy="250" rx="60" ry="40" fill="#e1d5e7" stroke="#9673a6" pointer-events="all"/><g transform="translate(-0.5 -0.5)"><switch><foreignObject pointer-events="none" width="100%" height="100%" requiredFeatures="http://www.w3.org/TR/SVG11/feature#Extensibility" style="overflow: visible; text-align: left;"><div xmlns="http://www.w3.org/1999/xhtml" style="display: flex; align-items: unsafe center; justify-content: unsafe center; width: 118px; height: 1px; padding-top: 250px; margin-left: 435px;"><div data-drawio-colors="color: rgb(0, 0, 0); " style="box-sizing: border-box; font-size: 0px; text-align: center;"><div style="display: inline-block; font-size: 16px; font-family: Helvetica; color: rgb(0, 0, 0); line-height: 1.2; pointer-events: all; white-space: normal; overflow-wrap: normal;">Publish Signing Certificate</div></div></div></foreignObject><text x="494" y="255" fill="rgb(0, 0, 0)" font-family="Helvetica" font-size="16px" text-anchor="middle">Publish Signing...</text></switch></g><path d="M 162.26 40 L 100 40 Q 90 40 90 50 L 90 108.26" fill="none" stroke="#b85450" stroke-width="2" stroke-miterlimit="10" pointer-events="stroke"/><path d="M 169.76 40 L 159.76 45 L 162.26 40 L 159.76 35 Z" fill="#b85450" stroke="#b85450" stroke-width="2" stroke-miterlimit="10" pointer-events="all"/><path d="M 90 115.76 L 85 105.76 L 90 108.26 L 95 105.76 Z" fill="#b85450" stroke="#b85450" stroke-width="2" stroke-miterlimit="10" pointer-events="all"/></g><switch><g requiredFeatures="http://www.w3.org/TR/SVG11/feature#Extensibility"/><a transform="translate(0,-5)" xlink:href="https://www.drawio.com/doc/faq/svg-export-text-problems" target="_blank"><text text-anchor="middle" font-size="10px" x="50%" y="100%">Text is not SVG - cannot display</text></a></switch></svg>