<?xml version="1.0" encoding="UTF-8"?>
<!-- Do not edit this file with editors other than draw.io -->
<!DOCTYPE svg PUBLIC "-//W3C//DTD SVG 1.1//EN" "http://www.w3.org/Graphics/SVG/1.1/DTD/svg11.dtd">
<svg xmlns="http://www.w3.org/2000/svg" xmlns:xlink="http://www.w3.org/1999/xlink" version="1.1" width="1153px" height="409px" viewBox="-0.5 -0.5 1153 409" content="&lt;mxfile host=&quot;app.diagrams.net&quot; modified=&quot;2023-08-03T21:25:21.325Z&quot; agent=&quot;Mozilla/5.0 (X11; Linux x86_64) AppleWebKit/537.36 (KHTML, like Gecko) Chrome/115.0.0.0 Safari/537.36&quot; etag=&quot;IB5nNr6AwM3hw00x3oeB&quot; version=&quot;21.6.6&quot; type=&quot;device&quot;&gt;&#10;  &lt;diagram name=&quot;Page-1&quot; id=&quot;dGBAUcZEUrfi-bXGVE_u&quot;&gt;&#10;    &lt;mxGraphModel dx=&quot;3334&quot; dy=&quot;1511&quot; grid=&quot;0&quot; gridSize=&quot;10&quot; guides=&quot;1&quot; tooltips=&quot;1&quot; connect=&quot;1&quot; arrows=&quot;1&quot; fold=&quot;1&quot; page=&quot;0&quot; pageScale=&quot;1&quot; pageWidth=&quot;850&quot; pageHeight=&quot;1100&quot; math=&quot;0&quot; shadow=&quot;0&quot;&gt;&#10;      &lt;root&gt;&#10;        &lt;mxCell id=&quot;0&quot; /&gt;&#10;        &lt;mxCell id=&quot;1&quot; parent=&quot;0&quot; /&gt;&#10;        &lt;mxCell id=&quot;Qn-NqMkRvEHAuJ-IB2Mp-12&quot; style=&quot;edgeStyle=none;curved=1;rounded=0;orthogonalLoop=1;jettySize=auto;html=1;exitX=1;exitY=0.5;exitDx=0;exitDy=0;fontSize=12;startSize=8;endSize=8;fillColor=#f8cecc;strokeColor=#b85450;strokeWidth=2;gradientColor=#ea6b66;&quot; parent=&quot;1&quot; source=&quot;Qn-NqMkRvEHAuJ-IB2Mp-1&quot; target=&quot;Qn-NqMkRvEHAuJ-IB2Mp-2&quot; edge=&quot;1&quot;&gt;&#10;          &lt;mxGeometry relative=&quot;1&quot; as=&quot;geometry&quot; /&gt;&#10;        &lt;/mxCell&gt;&#10;        &lt;mxCell id=&quot;Qn-NqMkRvEHAuJ-IB2Mp-31&quot; style=&quot;edgeStyle=none;rounded=1;orthogonalLoop=1;jettySize=auto;html=1;exitX=0.5;exitY=0;exitDx=0;exitDy=0;entryX=0.5;entryY=1;entryDx=0;entryDy=0;fontSize=12;startSize=8;endSize=8;fillColor=#dae8fc;strokeColor=#6c8ebf;strokeWidth=2;gradientColor=#7ea6e0;&quot; parent=&quot;1&quot; source=&quot;Qn-NqMkRvEHAuJ-IB2Mp-1&quot; target=&quot;Qn-NqMkRvEHAuJ-IB2Mp-26&quot; edge=&quot;1&quot;&gt;&#10;          &lt;mxGeometry relative=&quot;1&quot; as=&quot;geometry&quot;&gt;&#10;            &lt;Array as=&quot;points&quot;&gt;&#10;              &lt;mxPoint x=&quot;30&quot; y=&quot;-47&quot; /&gt;&#10;              &lt;mxPoint x=&quot;464&quot; y=&quot;-47&quot; /&gt;&#10;            &lt;/Array&gt;&#10;          &lt;/mxGeometry&gt;&#10;        &lt;/mxCell&gt;&#10;        &lt;mxCell id=&quot;Qn-NqMkRvEHAuJ-IB2Mp-32&quot; style=&quot;edgeStyle=none;rounded=1;orthogonalLoop=1;jettySize=auto;html=1;exitX=0.5;exitY=0;exitDx=0;exitDy=0;entryX=0.5;entryY=0;entryDx=0;entryDy=0;fontSize=12;startSize=8;endSize=8;fillColor=#dae8fc;strokeColor=#6c8ebf;strokeWidth=2;gradientColor=#7ea6e0;&quot; parent=&quot;1&quot; source=&quot;Qn-NqMkRvEHAuJ-IB2Mp-1&quot; target=&quot;Qn-NqMkRvEHAuJ-IB2Mp-6&quot; edge=&quot;1&quot;&gt;&#10;          &lt;mxGeometry relative=&quot;1&quot; as=&quot;geometry&quot;&gt;&#10;            &lt;Array as=&quot;points&quot;&gt;&#10;              &lt;mxPoint x=&quot;30&quot; y=&quot;-47&quot; /&gt;&#10;              &lt;mxPoint x=&quot;464&quot; y=&quot;-47&quot; /&gt;&#10;            &lt;/Array&gt;&#10;          &lt;/mxGeometry&gt;&#10;        &lt;/mxCell&gt;&#10;        &lt;mxCell id=&quot;Qn-NqMkRvEHAuJ-IB2Mp-1&quot; value=&quot;Developers&quot; style=&quot;rounded=1;whiteSpace=wrap;html=1;fontSize=16;fillColor=#ffe6cc;strokeColor=#d79b00;&quot; parent=&quot;1&quot; vertex=&quot;1&quot;&gt;&#10;          &lt;mxGeometry x=&quot;-30&quot; y=&quot;89&quot; width=&quot;120&quot; height=&quot;60&quot; as=&quot;geometry&quot; /&gt;&#10;        &lt;/mxCell&gt;&#10;        &lt;mxCell id=&quot;Qn-NqMkRvEHAuJ-IB2Mp-13&quot; style=&quot;edgeStyle=none;curved=1;rounded=0;orthogonalLoop=1;jettySize=auto;html=1;entryX=0;entryY=0.5;entryDx=0;entryDy=0;fontSize=12;startSize=8;endSize=8;fillColor=#f8cecc;strokeColor=#b85450;strokeWidth=2;gradientColor=#ea6b66;&quot; parent=&quot;1&quot; target=&quot;Qn-NqMkRvEHAuJ-IB2Mp-4&quot; edge=&quot;1&quot;&gt;&#10;          &lt;mxGeometry relative=&quot;1&quot; as=&quot;geometry&quot;&gt;&#10;            &lt;mxPoint x=&quot;262&quot; y=&quot;119&quot; as=&quot;sourcePoint&quot; /&gt;&#10;          &lt;/mxGeometry&gt;&#10;        &lt;/mxCell&gt;&#10;        &lt;mxCell id=&quot;Qn-NqMkRvEHAuJ-IB2Mp-2&quot; value=&quot;Request&amp;lt;br&amp;gt;Certificate&quot; style=&quot;ellipse;whiteSpace=wrap;html=1;fontSize=16;fillColor=#e1d5e7;strokeColor=#9673a6;&quot; parent=&quot;1&quot; vertex=&quot;1&quot;&gt;&#10;          &lt;mxGeometry x=&quot;142&quot; y=&quot;79&quot; width=&quot;120&quot; height=&quot;80&quot; as=&quot;geometry&quot; /&gt;&#10;        &lt;/mxCell&gt;&#10;        &lt;mxCell id=&quot;Qn-NqMkRvEHAuJ-IB2Mp-3&quot; value=&quot;Authenticate With OpenID Connect&quot; style=&quot;ellipse;whiteSpace=wrap;html=1;fontSize=16;fillColor=#e1d5e7;strokeColor=#9673a6;&quot; parent=&quot;1&quot; vertex=&quot;1&quot;&gt;&#10;          &lt;mxGeometry x=&quot;142&quot; y=&quot;-29&quot; width=&quot;120&quot; height=&quot;80&quot; as=&quot;geometry&quot; /&gt;&#10;        &lt;/mxCell&gt;&#10;        &lt;mxCell id=&quot;Qn-NqMkRvEHAuJ-IB2Mp-23&quot; style=&quot;edgeStyle=none;rounded=1;orthogonalLoop=1;jettySize=auto;html=1;exitX=0.5;exitY=1;exitDx=0;exitDy=0;entryX=0;entryY=0.5;entryDx=0;entryDy=0;fontSize=12;startSize=8;endSize=8;strokeWidth=2;fillColor=#ffcd28;gradientColor=#ffa500;strokeColor=#d79b00;&quot; parent=&quot;1&quot; source=&quot;Qn-NqMkRvEHAuJ-IB2Mp-4&quot; target=&quot;Qn-NqMkRvEHAuJ-IB2Mp-8&quot; edge=&quot;1&quot;&gt;&#10;          &lt;mxGeometry relative=&quot;1&quot; as=&quot;geometry&quot;&gt;&#10;            &lt;Array as=&quot;points&quot;&gt;&#10;              &lt;mxPoint x=&quot;374&quot; y=&quot;221&quot; /&gt;&#10;            &lt;/Array&gt;&#10;          &lt;/mxGeometry&gt;&#10;        &lt;/mxCell&gt;&#10;        &lt;mxCell id=&quot;Qn-NqMkRvEHAuJ-IB2Mp-24&quot; style=&quot;edgeStyle=none;rounded=1;orthogonalLoop=1;jettySize=auto;html=1;exitX=0.25;exitY=1;exitDx=0;exitDy=0;entryX=1;entryY=0.5;entryDx=0;entryDy=0;fontSize=12;startSize=8;endSize=8;fillColor=#f8cecc;strokeColor=#b85450;strokeWidth=2;gradientColor=#ea6b66;&quot; parent=&quot;1&quot; source=&quot;Qn-NqMkRvEHAuJ-IB2Mp-4&quot; target=&quot;Qn-NqMkRvEHAuJ-IB2Mp-5&quot; edge=&quot;1&quot;&gt;&#10;          &lt;mxGeometry relative=&quot;1&quot; as=&quot;geometry&quot;&gt;&#10;            &lt;Array as=&quot;points&quot;&gt;&#10;              &lt;mxPoint x=&quot;344&quot; y=&quot;221&quot; /&gt;&#10;            &lt;/Array&gt;&#10;          &lt;/mxGeometry&gt;&#10;        &lt;/mxCell&gt;&#10;        &lt;mxCell id=&quot;Qn-NqMkRvEHAuJ-IB2Mp-4&quot; value=&quot;Fulcio Signing CA&quot; style=&quot;rounded=1;whiteSpace=wrap;html=1;fontSize=16;fillColor=#b1ddf0;strokeColor=#10739e;&quot; parent=&quot;1&quot; vertex=&quot;1&quot;&gt;&#10;          &lt;mxGeometry x=&quot;314&quot; y=&quot;89&quot; width=&quot;120&quot; height=&quot;60&quot; as=&quot;geometry&quot; /&gt;&#10;        &lt;/mxCell&gt;&#10;        &lt;mxCell id=&quot;Qn-NqMkRvEHAuJ-IB2Mp-41&quot; style=&quot;edgeStyle=none;rounded=1;orthogonalLoop=1;jettySize=auto;html=1;exitX=0;exitY=0.5;exitDx=0;exitDy=0;fontSize=12;startSize=8;endSize=8;entryX=0.5;entryY=1;entryDx=0;entryDy=0;fillColor=#f8cecc;strokeColor=#b85450;strokeWidth=2;gradientColor=#ea6b66;&quot; parent=&quot;1&quot; source=&quot;Qn-NqMkRvEHAuJ-IB2Mp-5&quot; target=&quot;Qn-NqMkRvEHAuJ-IB2Mp-1&quot; edge=&quot;1&quot;&gt;&#10;          &lt;mxGeometry relative=&quot;1&quot; as=&quot;geometry&quot;&gt;&#10;            &lt;Array as=&quot;points&quot;&gt;&#10;              &lt;mxPoint x=&quot;30&quot; y=&quot;221&quot; /&gt;&#10;            &lt;/Array&gt;&#10;          &lt;/mxGeometry&gt;&#10;        &lt;/mxCell&gt;&#10;        &lt;mxCell id=&quot;Qn-NqMkRvEHAuJ-IB2Mp-5&quot; value=&quot;Provide Signing Certificate&quot; style=&quot;ellipse;whiteSpace=wrap;html=1;fontSize=16;fillColor=#e1d5e7;strokeColor=#9673a6;&quot; parent=&quot;1&quot; vertex=&quot;1&quot;&gt;&#10;          &lt;mxGeometry x=&quot;144&quot; y=&quot;181&quot; width=&quot;120&quot; height=&quot;80&quot; as=&quot;geometry&quot; /&gt;&#10;        &lt;/mxCell&gt;&#10;        &lt;mxCell id=&quot;Qn-NqMkRvEHAuJ-IB2Mp-29&quot; style=&quot;edgeStyle=none;rounded=1;orthogonalLoop=1;jettySize=auto;html=1;exitX=1;exitY=0.5;exitDx=0;exitDy=0;entryX=0.5;entryY=1;entryDx=0;entryDy=0;fontSize=12;startSize=8;endSize=8;fillColor=#dae8fc;strokeColor=#6c8ebf;strokeWidth=2;gradientColor=#7ea6e0;&quot; parent=&quot;1&quot; source=&quot;Qn-NqMkRvEHAuJ-IB2Mp-6&quot; target=&quot;Qn-NqMkRvEHAuJ-IB2Mp-27&quot; edge=&quot;1&quot;&gt;&#10;          &lt;mxGeometry relative=&quot;1&quot; as=&quot;geometry&quot;&gt;&#10;            &lt;Array as=&quot;points&quot;&gt;&#10;              &lt;mxPoint x=&quot;718&quot; y=&quot;11&quot; /&gt;&#10;            &lt;/Array&gt;&#10;          &lt;/mxGeometry&gt;&#10;        &lt;/mxCell&gt;&#10;        &lt;mxCell id=&quot;Qn-NqMkRvEHAuJ-IB2Mp-30&quot; style=&quot;edgeStyle=none;rounded=1;orthogonalLoop=1;jettySize=auto;html=1;exitX=1;exitY=0.5;exitDx=0;exitDy=0;entryX=0.5;entryY=0;entryDx=0;entryDy=0;fontSize=12;startSize=8;endSize=8;fillColor=#dae8fc;strokeColor=#6c8ebf;strokeWidth=2;gradientColor=#7ea6e0;&quot; parent=&quot;1&quot; source=&quot;Qn-NqMkRvEHAuJ-IB2Mp-6&quot; target=&quot;Qn-NqMkRvEHAuJ-IB2Mp-11&quot; edge=&quot;1&quot;&gt;&#10;          &lt;mxGeometry relative=&quot;1&quot; as=&quot;geometry&quot;&gt;&#10;            &lt;Array as=&quot;points&quot;&gt;&#10;              &lt;mxPoint x=&quot;718&quot; y=&quot;11&quot; /&gt;&#10;            &lt;/Array&gt;&#10;          &lt;/mxGeometry&gt;&#10;        &lt;/mxCell&gt;&#10;        &lt;mxCell id=&quot;Qn-NqMkRvEHAuJ-IB2Mp-6&quot; value=&quot;Publish Signature&quot; style=&quot;ellipse;whiteSpace=wrap;html=1;fontSize=16;fillColor=#e1d5e7;strokeColor=#9673a6;&quot; parent=&quot;1&quot; vertex=&quot;1&quot;&gt;&#10;          &lt;mxGeometry x=&quot;404&quot; y=&quot;-29&quot; width=&quot;120&quot; height=&quot;80&quot; as=&quot;geometry&quot; /&gt;&#10;        &lt;/mxCell&gt;&#10;        &lt;mxCell id=&quot;Qn-NqMkRvEHAuJ-IB2Mp-7&quot; value=&quot;Fulcio Transparency Log&quot; style=&quot;rounded=1;whiteSpace=wrap;html=1;fontSize=16;fillColor=#b1ddf0;strokeColor=#10739e;&quot; parent=&quot;1&quot; vertex=&quot;1&quot;&gt;&#10;          &lt;mxGeometry x=&quot;486&quot; y=&quot;89&quot; width=&quot;120&quot; height=&quot;60&quot; as=&quot;geometry&quot; /&gt;&#10;        &lt;/mxCell&gt;&#10;        &lt;mxCell id=&quot;Qn-NqMkRvEHAuJ-IB2Mp-25&quot; style=&quot;edgeStyle=none;rounded=1;orthogonalLoop=1;jettySize=auto;html=1;exitX=1;exitY=0.5;exitDx=0;exitDy=0;entryX=0.5;entryY=1;entryDx=0;entryDy=0;fontSize=12;startSize=8;endSize=8;strokeWidth=2;fillColor=#ffcd28;gradientColor=#ffa500;strokeColor=#d79b00;&quot; parent=&quot;1&quot; source=&quot;Qn-NqMkRvEHAuJ-IB2Mp-8&quot; target=&quot;Qn-NqMkRvEHAuJ-IB2Mp-7&quot; edge=&quot;1&quot;&gt;&#10;          &lt;mxGeometry relative=&quot;1&quot; as=&quot;geometry&quot;&gt;&#10;            &lt;Array as=&quot;points&quot;&gt;&#10;              &lt;mxPoint x=&quot;546&quot; y=&quot;221&quot; /&gt;&#10;            &lt;/Array&gt;&#10;          &lt;/mxGeometry&gt;&#10;        &lt;/mxCell&gt;&#10;        &lt;mxCell id=&quot;Qn-NqMkRvEHAuJ-IB2Mp-8&quot; value=&quot;Publish Signing Certificate&quot; style=&quot;ellipse;whiteSpace=wrap;html=1;fontSize=16;fillColor=#e1d5e7;strokeColor=#9673a6;&quot; parent=&quot;1&quot; vertex=&quot;1&quot;&gt;&#10;          &lt;mxGeometry x=&quot;404&quot; y=&quot;181&quot; width=&quot;120&quot; height=&quot;80&quot; as=&quot;geometry&quot; /&gt;&#10;        &lt;/mxCell&gt;&#10;        &lt;mxCell id=&quot;Qn-NqMkRvEHAuJ-IB2Mp-11&quot; value=&quot;Rekor Transparency Log&quot; style=&quot;rounded=1;whiteSpace=wrap;html=1;fontSize=16;fillColor=#b1ddf0;strokeColor=#10739e;&quot; parent=&quot;1&quot; vertex=&quot;1&quot;&gt;&#10;          &lt;mxGeometry x=&quot;658&quot; y=&quot;89&quot; width=&quot;120&quot; height=&quot;60&quot; as=&quot;geometry&quot; /&gt;&#10;        &lt;/mxCell&gt;&#10;        &lt;mxCell id=&quot;Qn-NqMkRvEHAuJ-IB2Mp-16&quot; value=&quot;&quot; style=&quot;endArrow=classic;startArrow=classic;html=1;rounded=1;fontSize=12;startSize=8;endSize=8;entryX=0.75;entryY=0;entryDx=0;entryDy=0;fillColor=#f8cecc;strokeColor=#b85450;strokeWidth=2;gradientColor=#ea6b66;&quot; parent=&quot;1&quot; source=&quot;Qn-NqMkRvEHAuJ-IB2Mp-3&quot; target=&quot;Qn-NqMkRvEHAuJ-IB2Mp-1&quot; edge=&quot;1&quot;&gt;&#10;          &lt;mxGeometry width=&quot;50&quot; height=&quot;50&quot; relative=&quot;1&quot; as=&quot;geometry&quot;&gt;&#10;            &lt;mxPoint x=&quot;202&quot; y=&quot;107&quot; as=&quot;sourcePoint&quot; /&gt;&#10;            &lt;mxPoint x=&quot;204&quot; y=&quot;84&quot; as=&quot;targetPoint&quot; /&gt;&#10;            &lt;Array as=&quot;points&quot;&gt;&#10;              &lt;mxPoint x=&quot;60&quot; y=&quot;11&quot; /&gt;&#10;            &lt;/Array&gt;&#10;          &lt;/mxGeometry&gt;&#10;        &lt;/mxCell&gt;&#10;        &lt;mxCell id=&quot;Qn-NqMkRvEHAuJ-IB2Mp-28&quot; style=&quot;edgeStyle=none;curved=1;rounded=0;orthogonalLoop=1;jettySize=auto;html=1;exitX=1;exitY=0.5;exitDx=0;exitDy=0;entryX=0;entryY=0.5;entryDx=0;entryDy=0;fontSize=12;startSize=8;endSize=8;fillColor=#dae8fc;strokeColor=#6c8ebf;strokeWidth=2;gradientColor=#7ea6e0;&quot; parent=&quot;1&quot; source=&quot;Qn-NqMkRvEHAuJ-IB2Mp-26&quot; target=&quot;Qn-NqMkRvEHAuJ-IB2Mp-27&quot; edge=&quot;1&quot;&gt;&#10;          &lt;mxGeometry relative=&quot;1&quot; as=&quot;geometry&quot; /&gt;&#10;        &lt;/mxCell&gt;&#10;        &lt;mxCell id=&quot;Qn-NqMkRvEHAuJ-IB2Mp-26&quot; value=&quot;Publish&amp;lt;br&amp;gt;Artifact&quot; style=&quot;ellipse;whiteSpace=wrap;html=1;fontSize=16;fillColor=#e1d5e7;strokeColor=#9673a6;&quot; parent=&quot;1&quot; vertex=&quot;1&quot;&gt;&#10;          &lt;mxGeometry x=&quot;404&quot; y=&quot;-147&quot; width=&quot;120&quot; height=&quot;80&quot; as=&quot;geometry&quot; /&gt;&#10;        &lt;/mxCell&gt;&#10;        &lt;mxCell id=&quot;Qn-NqMkRvEHAuJ-IB2Mp-27&quot; value=&quot;Registry&amp;lt;br&amp;gt;&quot; style=&quot;rounded=1;whiteSpace=wrap;html=1;fontSize=16;fillColor=#b1ddf0;strokeColor=#10739e;&quot; parent=&quot;1&quot; vertex=&quot;1&quot;&gt;&#10;          &lt;mxGeometry x=&quot;658&quot; y=&quot;-137&quot; width=&quot;120&quot; height=&quot;60&quot; as=&quot;geometry&quot; /&gt;&#10;        &lt;/mxCell&gt;&#10;        &lt;mxCell id=&quot;Qn-NqMkRvEHAuJ-IB2Mp-34&quot; style=&quot;edgeStyle=none;curved=1;rounded=0;orthogonalLoop=1;jettySize=auto;html=1;exitX=0;exitY=0.5;exitDx=0;exitDy=0;entryX=1;entryY=0.5;entryDx=0;entryDy=0;fontSize=12;startSize=8;endSize=8;fillColor=#d5e8d4;strokeColor=#82b366;strokeWidth=2;gradientColor=#97d077;&quot; parent=&quot;1&quot; source=&quot;Qn-NqMkRvEHAuJ-IB2Mp-33&quot; target=&quot;Qn-NqMkRvEHAuJ-IB2Mp-11&quot; edge=&quot;1&quot;&gt;&#10;          &lt;mxGeometry relative=&quot;1&quot; as=&quot;geometry&quot; /&gt;&#10;        &lt;/mxCell&gt;&#10;        &lt;mxCell id=&quot;Qn-NqMkRvEHAuJ-IB2Mp-33&quot; value=&quot;Check Signature&quot; style=&quot;ellipse;whiteSpace=wrap;html=1;fontSize=16;fillColor=#e1d5e7;strokeColor=#9673a6;&quot; parent=&quot;1&quot; vertex=&quot;1&quot;&gt;&#10;          &lt;mxGeometry x=&quot;830&quot; y=&quot;79&quot; width=&quot;120&quot; height=&quot;80&quot; as=&quot;geometry&quot; /&gt;&#10;        &lt;/mxCell&gt;&#10;        &lt;mxCell id=&quot;Qn-NqMkRvEHAuJ-IB2Mp-39&quot; style=&quot;edgeStyle=none;rounded=1;orthogonalLoop=1;jettySize=auto;html=1;exitX=0.5;exitY=0;exitDx=0;exitDy=0;entryX=1;entryY=0.5;entryDx=0;entryDy=0;fontSize=12;startSize=8;endSize=8;fillColor=#d5e8d4;strokeColor=#82b366;strokeWidth=2;gradientColor=#97d077;&quot; parent=&quot;1&quot; source=&quot;Qn-NqMkRvEHAuJ-IB2Mp-35&quot; target=&quot;Qn-NqMkRvEHAuJ-IB2Mp-36&quot; edge=&quot;1&quot;&gt;&#10;          &lt;mxGeometry relative=&quot;1&quot; as=&quot;geometry&quot;&gt;&#10;            &lt;Array as=&quot;points&quot;&gt;&#10;              &lt;mxPoint x=&quot;1062&quot; y=&quot;-107&quot; /&gt;&#10;            &lt;/Array&gt;&#10;          &lt;/mxGeometry&gt;&#10;        &lt;/mxCell&gt;&#10;        &lt;mxCell id=&quot;Qn-NqMkRvEHAuJ-IB2Mp-40&quot; style=&quot;edgeStyle=none;curved=1;rounded=0;orthogonalLoop=1;jettySize=auto;html=1;exitX=0;exitY=0.5;exitDx=0;exitDy=0;entryX=1;entryY=0.5;entryDx=0;entryDy=0;fontSize=12;startSize=8;endSize=8;fillColor=#d5e8d4;strokeColor=#82b366;strokeWidth=2;gradientColor=#97d077;&quot; parent=&quot;1&quot; source=&quot;Qn-NqMkRvEHAuJ-IB2Mp-35&quot; target=&quot;Qn-NqMkRvEHAuJ-IB2Mp-33&quot; edge=&quot;1&quot;&gt;&#10;          &lt;mxGeometry relative=&quot;1&quot; as=&quot;geometry&quot; /&gt;&#10;        &lt;/mxCell&gt;&#10;        &lt;mxCell id=&quot;Qn-NqMkRvEHAuJ-IB2Mp-44&quot; style=&quot;edgeStyle=none;rounded=1;orthogonalLoop=1;jettySize=auto;html=1;exitX=0.5;exitY=1;exitDx=0;exitDy=0;entryX=1;entryY=0.5;entryDx=0;entryDy=0;fontSize=12;startSize=8;endSize=8;fillColor=#d5e8d4;gradientColor=#97d077;strokeColor=#82b366;strokeWidth=2;&quot; parent=&quot;1&quot; source=&quot;Qn-NqMkRvEHAuJ-IB2Mp-35&quot; target=&quot;Qn-NqMkRvEHAuJ-IB2Mp-42&quot; edge=&quot;1&quot;&gt;&#10;          &lt;mxGeometry relative=&quot;1&quot; as=&quot;geometry&quot;&gt;&#10;            &lt;Array as=&quot;points&quot;&gt;&#10;              &lt;mxPoint x=&quot;1062&quot; y=&quot;221&quot; /&gt;&#10;            &lt;/Array&gt;&#10;          &lt;/mxGeometry&gt;&#10;        &lt;/mxCell&gt;&#10;        &lt;mxCell id=&quot;Qn-NqMkRvEHAuJ-IB2Mp-35&quot; value=&quot;End Users&quot; style=&quot;rounded=1;whiteSpace=wrap;html=1;fontSize=16;fillColor=#ffe6cc;strokeColor=#d79b00;&quot; parent=&quot;1&quot; vertex=&quot;1&quot;&gt;&#10;          &lt;mxGeometry x=&quot;1002&quot; y=&quot;89&quot; width=&quot;120&quot; height=&quot;60&quot; as=&quot;geometry&quot; /&gt;&#10;        &lt;/mxCell&gt;&#10;        &lt;mxCell id=&quot;Qn-NqMkRvEHAuJ-IB2Mp-38&quot; style=&quot;edgeStyle=none;curved=1;rounded=0;orthogonalLoop=1;jettySize=auto;html=1;exitX=0;exitY=0.5;exitDx=0;exitDy=0;fontSize=12;startSize=8;endSize=8;fillColor=#d5e8d4;strokeColor=#82b366;strokeWidth=2;gradientColor=#97d077;&quot; parent=&quot;1&quot; source=&quot;Qn-NqMkRvEHAuJ-IB2Mp-36&quot; target=&quot;Qn-NqMkRvEHAuJ-IB2Mp-27&quot; edge=&quot;1&quot;&gt;&#10;          &lt;mxGeometry relative=&quot;1&quot; as=&quot;geometry&quot; /&gt;&#10;        &lt;/mxCell&gt;&#10;        &lt;mxCell id=&quot;Qn-NqMkRvEHAuJ-IB2Mp-36&quot; value=&quot;Download&amp;lt;br&amp;gt;Artifact/&amp;lt;br&amp;gt;Signature&quot; style=&quot;ellipse;whiteSpace=wrap;html=1;fontSize=16;fillColor=#e1d5e7;strokeColor=#9673a6;&quot; parent=&quot;1&quot; vertex=&quot;1&quot;&gt;&#10;          &lt;mxGeometry x=&quot;830&quot; y=&quot;-147&quot; width=&quot;120&quot; height=&quot;80&quot; as=&quot;geometry&quot; /&gt;&#10;        &lt;/mxCell&gt;&#10;        &lt;mxCell id=&quot;Qn-NqMkRvEHAuJ-IB2Mp-45&quot; style=&quot;edgeStyle=none;curved=1;rounded=0;orthogonalLoop=1;jettySize=auto;html=1;exitX=0;exitY=0.5;exitDx=0;exitDy=0;entryX=1;entryY=0.5;entryDx=0;entryDy=0;fontSize=12;startSize=8;endSize=8;fillColor=#d5e8d4;gradientColor=#97d077;strokeColor=#82b366;strokeWidth=2;&quot; parent=&quot;1&quot; source=&quot;Qn-NqMkRvEHAuJ-IB2Mp-42&quot; target=&quot;Qn-NqMkRvEHAuJ-IB2Mp-43&quot; edge=&quot;1&quot;&gt;&#10;          &lt;mxGeometry relative=&quot;1&quot; as=&quot;geometry&quot; /&gt;&#10;        &lt;/mxCell&gt;&#10;        &lt;mxCell id=&quot;Qn-NqMkRvEHAuJ-IB2Mp-42&quot; value=&quot;Check Rekor PK and Fulcio&amp;lt;br&amp;gt;Cert&quot; style=&quot;ellipse;whiteSpace=wrap;html=1;fontSize=16;fillColor=#e1d5e7;strokeColor=#9673a6;&quot; parent=&quot;1&quot; vertex=&quot;1&quot;&gt;&#10;          &lt;mxGeometry x=&quot;830&quot; y=&quot;181&quot; width=&quot;120&quot; height=&quot;80&quot; as=&quot;geometry&quot; /&gt;&#10;        &lt;/mxCell&gt;&#10;        &lt;mxCell id=&quot;Qn-NqMkRvEHAuJ-IB2Mp-43&quot; value=&quot;TUF Trust Root&quot; style=&quot;rounded=1;whiteSpace=wrap;html=1;fontSize=16;fillColor=#b1ddf0;strokeColor=#10739e;&quot; parent=&quot;1&quot; vertex=&quot;1&quot;&gt;&#10;          &lt;mxGeometry x=&quot;658&quot; y=&quot;191&quot; width=&quot;120&quot; height=&quot;60&quot; as=&quot;geometry&quot; /&gt;&#10;        &lt;/mxCell&gt;&#10;      &lt;/root&gt;&#10;    &lt;/mxGraphModel&gt;&#10;  &lt;/diagram&gt;&#10;&lt;/mxfile&gt;&#10;"><defs/><g><path d="M 120 266 Q 120 266 162.26 266" fill="none" stroke="#b85450" stroke-width="2" stroke-miterlimit="10" pointer-events="stroke"/><path d="M 169.76 266 L 159.76 271 L 162.26 266 L 159.76 261 Z" fill="#b85450" stroke="#b85450" stroke-width="2" stroke-miterlimit="10" pointer-events="all"/><path d="M 60 236 L 60 110 Q 60 100 70 100 L 484 100 Q 494 100 494 94.87 L 494 89.74" fill="none" stroke="#6c8ebf" stroke-width="2" stroke-miterlimit="10" pointer-events="stroke"/><path d="M 494 82.24 L 499 92.24 L 494 89.74 L 489 92.24 Z" fill="#6c8ebf" stroke="#6c8ebf" stroke-width="2" stroke-miterlimit="10" pointer-events="all"/><path d="M 60 236 L 60 110 Q 60 100 70 100 L 484 100 Q 494 100 494 104.13 L 494 108.26" fill="none" stroke="#6c8ebf" stroke-width="2" stroke-miterlimit="10" pointer-events="stroke"/><path d="M 494 115.76 L 489 105.76 L 494 108.26 L 499 105.76 Z" fill="#6c8ebf" stroke="#6c8ebf" stroke-width="2" stroke-miterlimit="10" pointer-events="all"/><rect x="0" y="236" width="120" height="60" rx="9" ry="9" fill="#ffe6cc" stroke="#d79b00" pointer-events="all"/><g transform="translate(-0.5 -0.5)"><switch><foreignObject pointer-events="none" width="100%" height="100%" requiredFeatures="http://www.w3.org/TR/SVG11/feature#Extensibility" style="overflow: visible; text-align: left;"><div xmlns="http://www.w3.org/1999/xhtml" style="display: flex; align-items: unsafe center; justify-content: unsafe center; width: 118px; height: 1px; padding-top: 266px; margin-left: 1px;"><div data-drawio-colors="color: rgb(0, 0, 0); " style="box-sizing: border-box; font-size: 0px; text-align: center;"><div style="display: inline-block; font-size: 16px; font-family: Helvetica; color: rgb(0, 0, 0); line-height: 1.2; pointer-events: all; white-space: normal; overflow-wrap: normal;">Developers</div></div></div></foreignObject><text x="60" y="271" fill="rgb(0, 0, 0)" font-family="Helvetica" font-size="16px" text-anchor="middle">Developers</text></switch></g><path d="M 292 266 Q 292 266 334.26 266" fill="none" stroke="#b85450" stroke-width="2" stroke-miterlimit="10" pointer-events="stroke"/><path d="M 341.76 266 L 331.76 271 L 334.26 266 L 331.76 261 Z" fill="#b85450" stroke="#b85450" stroke-width="2" stroke-miterlimit="10" pointer-events="all"/><ellipse cx="232" cy="266" rx="60" ry="40" fill="#e1d5e7" stroke="#9673a6" pointer-events="all"/><g transform="translate(-0.5 -0.5)"><switch><foreignObject pointer-events="none" width="100%" height="100%" requiredFeatures="http://www.w3.org/TR/SVG11/feature#Extensibility" style="overflow: visible; text-align: left;"><div xmlns="http://www.w3.org/1999/xhtml" style="display: flex; align-items: unsafe center; justify-content: unsafe center; width: 118px; height: 1px; padding-top: 266px; margin-left: 173px;"><div data-drawio-colors="color: rgb(0, 0, 0); " style="box-sizing: border-box; font-size: 0px; text-align: center;"><div style="display: inline-block; font-size: 16px; font-family: Helvetica; color: rgb(0, 0, 0); line-height: 1.2; pointer-events: all; white-space: normal; overflow-wrap: normal;">Request<br />Certificate</div></div></div></foreignObject><text x="232" y="271" fill="rgb(0, 0, 0)" font-family="Helvetica" font-size="16px" text-anchor="middle">Request...</text></switch></g><ellipse cx="232" cy="158" rx="60" ry="40" fill="#e1d5e7" stroke="#9673a6" pointer-events="all"/><g transform="translate(-0.5 -0.5)"><switch><foreignObject pointer-events="none" width="100%" height="100%" requiredFeatures="http://www.w3.org/TR/SVG11/feature#Extensibility" style="overflow: visible; text-align: left;"><div xmlns="http://www.w3.org/1999/xhtml" style="display: flex; align-items: unsafe center; justify-content: unsafe center; width: 118px; height: 1px; padding-top: 158px; margin-left: 173px;"><div data-drawio-colors="color: rgb(0, 0, 0); " style="box-sizing: border-box; font-size: 0px; text-align: center;"><div style="display: inline-block; font-size: 16px; font-family: Helvetica; color: rgb(0, 0, 0); line-height: 1.2; pointer-events: all; white-space: normal; overflow-wrap: normal;">Authenticate With OpenID Connect</div></div></div></foreignObject><text x="232" y="163" fill="rgb(0, 0, 0)" font-family="Helvetica" font-size="16px" text-anchor="middle">Authenticate Wi...</text></switch></g><path d="M 404 296 L 404 358 Q 404 368 414 368 L 424.26 368" fill="none" stroke="#d79b00" stroke-width="2" stroke-miterlimit="10" pointer-events="stroke"/><path d="M 431.76 368 L 421.76 373 L 424.26 368 L 421.76 363 Z" fill="#d79b00" stroke="#d79b00" stroke-width="2" stroke-miterlimit="10" pointer-events="all"/><path d="M 374 296 L 374 358 Q 374 368 364 368 L 303.74 368" fill="none" stroke="#b85450" stroke-width="2" stroke-miterlimit="10" pointer-events="stroke"/><path d="M 296.24 368 L 306.24 363 L 303.74 368 L 306.24 373 Z" fill="#b85450" stroke="#b85450" stroke-width="2" stroke-miterlimit="10" pointer-events="all"/><rect x="344" y="236" width="120" height="60" rx="9" ry="9" fill="#b1ddf0" stroke="#10739e" pointer-events="all"/><g transform="translate(-0.5 -0.5)"><switch><foreignObject pointer-events="none" width="100%" height="100%" requiredFeatures="http://www.w3.org/TR/SVG11/feature#Extensibility" style="overflow: visible; text-align: left;"><div xmlns="http://www.w3.org/1999/xhtml" style="display: flex; align-items: unsafe center; justify-content: unsafe center; width: 118px; height: 1px; padding-top: 266px; margin-left: 345px;"><div data-drawio-colors="color: rgb(0, 0, 0); " style="box-sizing: border-box; font-size: 0px; text-align: center;"><div style="display: inline-block; font-size: 16px; font-family: Helvetica; color: rgb(0, 0, 0); line-height: 1.2; pointer-events: all; white-space: normal; overflow-wrap: normal;">Fulcio Signing CA</div></div></div></foreignObject><text x="404" y="271" fill="rgb(0, 0, 0)" font-family="Helvetica" font-size="16px" text-anchor="middle">Fulcio Signing...</text></switch></g><path d="M 174 368 L 70 368 Q 60 368 60 358 L 60 305.74" fill="none" stroke="#b85450" stroke-width="2" stroke-miterlimit="10" pointer-events="stroke"/><path d="M 60 298.24 L 65 308.24 L 60 305.74 L 55 308.24 Z" fill="#b85450" stroke="#b85450" stroke-width="2" stroke-miterlimit="10" pointer-events="all"/><ellipse cx="234" cy="368" rx="60" ry="40" fill="#e1d5e7" stroke="#9673a6" pointer-events="all"/><g transform="translate(-0.5 -0.5)"><switch><foreignObject pointer-events="none" width="100%" height="100%" requiredFeatures="http://www.w3.org/TR/SVG11/feature#Extensibility" style="overflow: visible; text-align: left;"><div xmlns="http://www.w3.org/1999/xhtml" style="display: flex; align-items: unsafe center; justify-content: unsafe center; width: 118px; height: 1px; padding-top: 368px; margin-left: 175px;"><div data-drawio-colors="color: rgb(0, 0, 0); " style="box-sizing: border-box; font-size: 0px; text-align: center;"><div style="display: inline-block; font-size: 16px; font-family: Helvetica; color: rgb(0, 0, 0); line-height: 1.2; pointer-events: all; white-space: normal; overflow-wrap: normal;">Provide Signing Certificate</div></div></div></foreignObject><text x="234" y="373" fill="rgb(0, 0, 0)" font-family="Helvetica" font-size="16px" text-anchor="middle">Provide Signing...</text></switch></g><path d="M 554 158 L 738 158 Q 748 158 748 148 L 748 79.74" fill="none" stroke="#6c8ebf" stroke-width="2" stroke-miterlimit="10" pointer-events="stroke"/><path d="M 748 72.24 L 753 82.24 L 748 79.74 L 743 82.24 Z" fill="#6c8ebf" stroke="#6c8ebf" stroke-width="2" stroke-miterlimit="10" pointer-events="all"/><path d="M 554 158 L 738 158 Q 748 158 748 168 L 748 226.26" fill="none" stroke="#6c8ebf" stroke-width="2" stroke-miterlimit="10" pointer-events="stroke"/><path d="M 748 233.76 L 743 223.76 L 748 226.26 L 753 223.76 Z" fill="#6c8ebf" stroke="#6c8ebf" stroke-width="2" stroke-miterlimit="10" pointer-events="all"/><ellipse cx="494" cy="158" rx="60" ry="40" fill="#e1d5e7" stroke="#9673a6" pointer-events="all"/><g transform="translate(-0.5 -0.5)"><switch><foreignObject pointer-events="none" width="100%" height="100%" requiredFeatures="http://www.w3.org/TR/SVG11/feature#Extensibility" style="overflow: visible; text-align: left;"><div xmlns="http://www.w3.org/1999/xhtml" style="display: flex; align-items: unsafe center; justify-content: unsafe center; width: 118px; height: 1px; padding-top: 158px; margin-left: 435px;"><div data-drawio-colors="color: rgb(0, 0, 0); " style="box-sizing: border-box; font-size: 0px; text-align: center;"><div style="display: inline-block; font-size: 16px; font-family: Helvetica; color: rgb(0, 0, 0); line-height: 1.2; pointer-events: all; white-space: normal; overflow-wrap: normal;">Publish Signature</div></div></div></foreignObject><text x="494" y="163" fill="rgb(0, 0, 0)" font-family="Helvetica" font-size="16px" text-anchor="middle">Publish Signatu...</text></switch></g><rect x="516" y="236" width="120" height="60" rx="9" ry="9" fill="#b1ddf0" stroke="#10739e" pointer-events="all"/><g transform="translate(-0.5 -0.5)"><switch><foreignObject pointer-events="none" width="100%" height="100%" requiredFeatures="http://www.w3.org/TR/SVG11/feature#Extensibility" style="overflow: visible; text-align: left;"><div xmlns="http://www.w3.org/1999/xhtml" style="display: flex; align-items: unsafe center; justify-content: unsafe center; width: 118px; height: 1px; padding-top: 266px; margin-left: 517px;"><div data-drawio-colors="color: rgb(0, 0, 0); " style="box-sizing: border-box; font-size: 0px; text-align: center;"><div style="display: inline-block; font-size: 16px; font-family: Helvetica; color: rgb(0, 0, 0); line-height: 1.2; pointer-events: all; white-space: normal; overflow-wrap: normal;">Fulcio Transparency Log</div></div></div></foreignObject><text x="576" y="271" fill="rgb(0, 0, 0)" font-family="Helvetica" font-size="16px" text-anchor="middle">Fulcio Transpar...</text></switch></g><path d="M 554 368 L 566 368 Q 576 368 576 358 L 576 305.74" fill="none" stroke="#d79b00" stroke-width="2" stroke-miterlimit="10" pointer-events="stroke"/><path d="M 576 298.24 L 581 308.24 L 576 305.74 L 571 308.24 Z" fill="#d79b00" stroke="#d79b00" stroke-width="2" stroke-miterlimit="10" pointer-events="all"/><ellipse cx="494" cy="368" rx="60" ry="40" fill="#e1d5e7" stroke="#9673a6" pointer-events="all"/><g transform="translate(-0.5 -0.5)"><switch><foreignObject pointer-events="none" width="100%" height="100%" requiredFeatures="http://www.w3.org/TR/SVG11/feature#Extensibility" style="overflow: visible; text-align: left;"><div xmlns="http://www.w3.org/1999/xhtml" style="display: flex; align-items: unsafe center; justify-content: unsafe center; width: 118px; height: 1px; padding-top: 368px; margin-left: 435px;"><div data-drawio-colors="color: rgb(0, 0, 0); " style="box-sizing: border-box; font-size: 0px; text-align: center;"><div style="display: inline-block; font-size: 16px; font-family: Helvetica; color: rgb(0, 0, 0); line-height: 1.2; pointer-events: all; white-space: normal; overflow-wrap: normal;">Publish Signing Certificate</div></div></div></foreignObject><text x="494" y="373" fill="rgb(0, 0, 0)" font-family="Helvetica" font-size="16px" text-anchor="middle">Publish Signing...</text></switch></g><rect x="688" y="236" width="120" height="60" rx="9" ry="9" fill="#b1ddf0" stroke="#10739e" pointer-events="all"/><g transform="translate(-0.5 -0.5)"><switch><foreignObject pointer-events="none" width="100%" height="100%" requiredFeatures="http://www.w3.org/TR/SVG11/feature#Extensibility" style="overflow: visible; text-align: left;"><div xmlns="http://www.w3.org/1999/xhtml" style="display: flex; align-items: unsafe center; justify-content: unsafe center; width: 118px; height: 1px; padding-top: 266px; margin-left: 689px;"><div data-drawio-colors="color: rgb(0, 0, 0); " style="box-sizing: border-box; font-size: 0px; text-align: center;"><div style="display: inline-block; font-size: 16px; font-family: Helvetica; color: rgb(0, 0, 0); line-height: 1.2; pointer-events: all; white-space: normal; overflow-wrap: normal;">Rekor Transparency Log</div></div></div></foreignObject><text x="748" y="271" fill="rgb(0, 0, 0)" font-family="Helvetica" font-size="16px" text-anchor="middle">Rekor Transpare...</text></switch></g><path d="M 162.26 158 L 100 158 Q 90 158 90 168 L 90 226.26" fill="none" stroke="#b85450" stroke-width="2" stroke-miterlimit="10" pointer-events="stroke"/><path d="M 169.76 158 L 159.76 163 L 162.26 158 L 159.76 153 Z" fill="#b85450" stroke="#b85450" stroke-width="2" stroke-miterlimit="10" pointer-events="all"/><path d="M 90 233.76 L 85 223.76 L 90 226.26 L 95 223.76 Z" fill="#b85450" stroke="#b85450" stroke-width="2" stroke-miterlimit="10" pointer-events="all"/><path d="M 554 40 Q 554 40 678.26 40" fill="none" stroke="#6c8ebf" stroke-width="2" stroke-miterlimit="10" pointer-events="stroke"/><path d="M 685.76 40 L 675.76 45 L 678.26 40 L 675.76 35 Z" fill="#6c8ebf" stroke="#6c8ebf" stroke-width="2" stroke-miterlimit="10" pointer-events="all"/><ellipse cx="494" cy="40" rx="60" ry="40" fill="#e1d5e7" stroke="#9673a6" pointer-events="all"/><g transform="translate(-0.5 -0.5)"><switch><foreignObject pointer-events="none" width="100%" height="100%" requiredFeatures="http://www.w3.org/TR/SVG11/feature#Extensibility" style="overflow: visible; text-align: left;"><div xmlns="http://www.w3.org/1999/xhtml" style="display: flex; align-items: unsafe center; justify-content: unsafe center; width: 118px; height: 1px; padding-top: 40px; margin-left: 435px;"><div data-drawio-colors="color: rgb(0, 0, 0); " style="box-sizing: border-box; font-size: 0px; text-align: center;"><div style="display: inline-block; font-size: 16px; font-family: Helvetica; color: rgb(0, 0, 0); line-height: 1.2; pointer-events: all; white-space: normal; overflow-wrap: normal;">Publish<br />Artifact</div></div></div></foreignObject><text x="494" y="45" fill="rgb(0, 0, 0)" font-family="Helvetica" font-size="16px" text-anchor="middle">Publish...</text></switch></g><rect x="688" y="10" width="120" height="60" rx="9" ry="9" fill="#b1ddf0" stroke="#10739e" pointer-events="all"/><g transform="translate(-0.5 -0.5)"><switch><foreignObject pointer-events="none" width="100%" height="100%" requiredFeatures="http://www.w3.org/TR/SVG11/feature#Extensibility" style="overflow: visible; text-align: left;"><div xmlns="http://www.w3.org/1999/xhtml" style="display: flex; align-items: unsafe center; justify-content: unsafe center; width: 118px; height: 1px; padding-top: 40px; margin-left: 689px;"><div data-drawio-colors="color: rgb(0, 0, 0); " style="box-sizing: border-box; font-size: 0px; text-align: center;"><div style="display: inline-block; font-size: 16px; font-family: Helvetica; color: rgb(0, 0, 0); line-height: 1.2; pointer-events: all; white-space: normal; overflow-wrap: normal;">Registry<br /></div></div></div></foreignObject><text x="748" y="45" fill="rgb(0, 0, 0)" font-family="Helvetica" font-size="16px" text-anchor="middle">Registry&#xa;</text></switch></g><path d="M 860 266 Q 860 266 817.74 266" fill="none" stroke="#82b366" stroke-width="2" stroke-miterlimit="10" pointer-events="stroke"/><path d="M 810.24 266 L 820.24 261 L 817.74 266 L 820.24 271 Z" fill="#82b366" stroke="#82b366" stroke-width="2" stroke-miterlimit="10" pointer-events="all"/><ellipse cx="920" cy="266" rx="60" ry="40" fill="#e1d5e7" stroke="#9673a6" pointer-events="all"/><g transform="translate(-0.5 -0.5)"><switch><foreignObject pointer-events="none" width="100%" height="100%" requiredFeatures="http://www.w3.org/TR/SVG11/feature#Extensibility" style="overflow: visible; text-align: left;"><div xmlns="http://www.w3.org/1999/xhtml" style="display: flex; align-items: unsafe center; justify-content: unsafe center; width: 118px; height: 1px; padding-top: 266px; margin-left: 861px;"><div data-drawio-colors="color: rgb(0, 0, 0); " style="box-sizing: border-box; font-size: 0px; text-align: center;"><div style="display: inline-block; font-size: 16px; font-family: Helvetica; color: rgb(0, 0, 0); line-height: 1.2; pointer-events: all; white-space: normal; overflow-wrap: normal;">Check Signature</div></div></div></foreignObject><text x="920" y="271" fill="rgb(0, 0, 0)" font-family="Helvetica" font-size="16px" text-anchor="middle">Check Signature</text></switch></g><path d="M 1092 236 L 1092 50 Q 1092 40 1082 40 L 989.74 40" fill="none" stroke="#82b366" stroke-width="2" stroke-miterlimit="10" pointer-events="stroke"/><path d="M 982.24 40 L 992.24 35 L 989.74 40 L 992.24 45 Z" fill="#82b366" stroke="#82b366" stroke-width="2" stroke-miterlimit="10" pointer-events="all"/><path d="M 1032 266 Q 1032 266 989.74 266" fill="none" stroke="#82b366" stroke-width="2" stroke-miterlimit="10" pointer-events="stroke"/><path d="M 982.24 266 L 992.24 261 L 989.74 266 L 992.24 271 Z" fill="#82b366" stroke="#82b366" stroke-width="2" stroke-miterlimit="10" pointer-events="all"/><path d="M 1092 296 L 1092 358 Q 1092 368 1082 368 L 989.74 368" fill="none" stroke="#82b366" stroke-width="2" stroke-miterlimit="10" pointer-events="stroke"/><path d="M 982.24 368 L 992.24 363 L 989.74 368 L 992.24 373 Z" fill="#82b366" stroke="#82b366" stroke-width="2" stroke-miterlimit="10" pointer-events="all"/><rect x="1032" y="236" width="120" height="60" rx="9" ry="9" fill="#ffe6cc" stroke="#d79b00" pointer-events="all"/><g transform="translate(-0.5 -0.5)"><switch><foreignObject pointer-events="none" width="100%" height="100%" requiredFeatures="http://www.w3.org/TR/SVG11/feature#Extensibility" style="overflow: visible; text-align: left;"><div xmlns="http://www.w3.org/1999/xhtml" style="display: flex; align-items: unsafe center; justify-content: unsafe center; width: 118px; height: 1px; padding-top: 266px; margin-left: 1033px;"><div data-drawio-colors="color: rgb(0, 0, 0); " style="box-sizing: border-box; font-size: 0px; text-align: center;"><div style="display: inline-block; font-size: 16px; font-family: Helvetica; color: rgb(0, 0, 0); line-height: 1.2; pointer-events: all; white-space: normal; overflow-wrap: normal;">End Users</div></div></div></foreignObject><text x="1092" y="271" fill="rgb(0, 0, 0)" font-family="Helvetica" font-size="16px" text-anchor="middle">End Users</text></switch></g><path d="M 860 40 Q 860 40 817.74 40" fill="none" stroke="#82b366" stroke-width="2" stroke-miterlimit="10" pointer-events="stroke"/><path d="M 810.24 40 L 820.24 35 L 817.74 40 L 820.24 45 Z" fill="#82b366" stroke="#82b366" stroke-width="2" stroke-miterlimit="10" pointer-events="all"/><ellipse cx="920" cy="40" rx="60" ry="40" fill="#e1d5e7" stroke="#9673a6" pointer-events="all"/><g transform="translate(-0.5 -0.5)"><switch><foreignObject pointer-events="none" width="100%" height="100%" requiredFeatures="http://www.w3.org/TR/SVG11/feature#Extensibility" style="overflow: visible; text-align: left;"><div xmlns="http://www.w3.org/1999/xhtml" style="display: flex; align-items: unsafe center; justify-content: unsafe center; width: 118px; height: 1px; padding-top: 40px; margin-left: 861px;"><div data-drawio-colors="color: rgb(0, 0, 0); " style="box-sizing: border-box; font-size: 0px; text-align: center;"><div style="display: inline-block; font-size: 16px; font-family: Helvetica; color: rgb(0, 0, 0); line-height: 1.2; pointer-events: all; white-space: normal; overflow-wrap: normal;">Download<br />Artifact/<br />Signature</div></div></div></foreignObject><text x="920" y="45" fill="rgb(0, 0, 0)" font-family="Helvetica" font-size="16px" text-anchor="middle">Download...</text></switch></g><path d="M 860 368 Q 860 368 817.74 368" fill="none" stroke="#82b366" stroke-width="2" stroke-miterlimit="10" pointer-events="stroke"/><path d="M 810.24 368 L 820.24 363 L 817.74 368 L 820.24 373 Z" fill="#82b366" stroke="#82b366" stroke-width="2" stroke-miterlimit="10" pointer-events="all"/><ellipse cx="920" cy="368" rx="60" ry="40" fill="#e1d5e7" stroke="#9673a6" pointer-events="all"/><g transform="translate(-0.5 -0.5)"><switch><foreignObject pointer-events="none" width="100%" height="100%" requiredFeatures="http://www.w3.org/TR/SVG11/feature#Extensibility" style="overflow: visible; text-align: left;"><div xmlns="http://www.w3.org/1999/xhtml" style="display: flex; align-items: unsafe center; justify-content: unsafe center; width: 118px; height: 1px; padding-top: 368px; margin-left: 861px;"><div data-drawio-colors="color: rgb(0, 0, 0); " style="box-sizing: border-box; font-size: 0px; text-align: center;"><div style="display: inline-block; font-size: 16px; font-family: Helvetica; color: rgb(0, 0, 0); line-height: 1.2; pointer-events: all; white-space: normal; overflow-wrap: normal;">Check Rekor PK and Fulcio<br />Cert</div></div></div></foreignObject><text x="920" y="373" fill="rgb(0, 0, 0)" font-family="Helvetica" font-size="16px" text-anchor="middle">Check Rekor PK...</text></switch></g><rect x="688" y="338" width="120" height="60" rx="9" ry="9" fill="#b1ddf0" stroke="#10739e" pointer-events="all"/><g transform="translate(-0.5 -0.5)"><switch><foreignObject pointer-events="none" width="100%" height="100%" requiredFeatures="http://www.w3.org/TR/SVG11/feature#Extensibility" style="overflow: visible; text-align: left;"><div xmlns="http://www.w3.org/1999/xhtml" style="display: flex; align-items: unsafe center; justify-content: unsafe center; width: 118px; height: 1px; padding-top: 368px; margin-left: 689px;"><div data-drawio-colors="color: rgb(0, 0, 0); " style="box-sizing: border-box; font-size: 0px; text-align: center;"><div style="display: inline-block; font-size: 16px; font-family: Helvetica; color: rgb(0, 0, 0); line-height: 1.2; pointer-events: all; white-space: normal; overflow-wrap: normal;">TUF Trust Root</div></div></div></foreignObject><text x="748" y="373" fill="rgb(0, 0, 0)" font-family="Helvetica" font-size="16px" text-anchor="middle">TUF Trust Root</text></switch></g></g><switch><g requiredFeatures="http://www.w3.org/TR/SVG11/feature#Extensibility"/><a transform="translate(0,-5)" xlink:href="https://www.drawio.com/doc/faq/svg-export-text-problems" target="_blank"><text text-anchor="middle" font-size="10px" x="50%" y="100%">Text is not SVG - cannot display</text></a></switch></svg>